input courbescp13;
beginfig(1);
  cadre((0,0),(5,7));
  origine((2,3));
  unites(0.5,0.5);
  draw grille(0.5);
  draw axes;
  graduationx(btex 1 etex,1);
  graduationy(btex 1 etex,1);
  draw courbe1(-4,6,100,x+2);
  draw labelise1(btex $(d_2)$ etex,0.1);
  draw courbe2(-4,6,100,2);
  draw labelise2(btex $(d_1)$ etex,0.1);
  draw courbe3(-4,6,100,2*x);
  draw labelise3(btex $(d_4)$ etex,0.2);
  draw placepoint(2,-3)--placepoint(2,7);
  label.rt(btex $(d_3)$ etex,placepoint(2,-5));
endfig;
end