verbatimtex
%&latex
\documentclass{article}
\usepackage[utf8]{inputenc}
\usepackage[T1]{fontenc}
\usepackage{fourier}
\begin{document}
etex

input courbescp13;

vardef graduantxpos@#=
  for k=0 upto floor((x.ne*cm-x.origine*cm)/x.u):
    if k<>0:
      dotlabel.@#(format("%10f",k),placepoint(k,0));
    fi;
  endfor;
enddef;

input TEX;
beginfig(1);
  cadre((0,0),(10,15));
  draw grille(0.5) withcolor orange;%millimetrepourcourbe withcolor orange;
  origine((1,1));
  unites(1,0.5);
  draw axes;
  %drawarrow (((x.so*cm,y.origine*cm)--(x.ne*cm,y.origine*cm)) shifted (placepoint(0,770)-placepoint(0,0))) withpen pencircle scaled 1bp;
  %picture im;
  %im=image(
  graduantxpos.bot;
  %  Legendex.ulft(btex hauteur de la pyramide (en cm) etex);
  %  );
  %draw im shifted (placepoint(0,770)-placepoint(0,0));
  for k=0 upto 13:
    graduationy(TEX(""&decimal(2*k)&""),2*k);
  endfor;
  legendex(btex $x$ etex);
  legendey(btex $y$ etex);
  draw courbe1(0,8,2,2*x);
endfig;
end