input constantes;
input geometriepoint1;
beginfig(1);
  affixe.A(u*(1,1))s;
  affixe.B(u*(4,1))n;
  affixe.C(u*(4,-1))s;
  affixe.K(u*(6,-1));
  affixe.L(u*(6,1));
  draw z.A--z.C--z.K--z.L dashed evenly;
  draw z.B--z.C dashed evenly;
  draw codeperp(A,B,C,5);
  label.top(btex rampe etex rotated angle(z.C-z.A),1/2[z.A,z.C]);
  label.top(btex garage etex,1/2[z.C,z.K]);
  draw z.A--z.L;
endfig;
beginfig(2);
  affixe.A(u*(1,1))so;
  affixe.B(u*(5,1))se;
  affixe.C(u*(6,4))ne;
  affixe.D(z.A shifted (z.C-z.B))no;
  affixe.S((xpart(1/2[z.A,z.C]),5u))n;
  affixe.H(1/2[z.A,z.C])s;
  draw z.A--z.B--z.C--z.S--z.D--cycle;
  draw z.A--z.S--z.B;
  draw z.B--z.D--z.C--z.A dashed evenly;
  draw z.S--z.H dashed evenly;
  draw codeperp(S,H,C,5);
endfig;
end

    
  
