verbatimtex
%&latex
\documentclass{article}
\usepackage{fourier}
\begin{document}
etex

input courbescp13;
input TEX;

beginfig(1);
  cadre((0,0),(17,18));
  draw grille(0.5) withcolor orange;
  origine((1,1));
  unites(1,1/10);
  draw axes;
  legendex(btex $x$ etex);
  legendey(btex $y$ etex);
  for k=1 upto 15:
    dotlabel.bot(TEX(""&decimal(k)&""),placepoint(k,0));
  endfor;
  for k=1 upto 16:
    dotlabel.lft(TEX(""&decimal(10*k)&""),placepoint(0,10*k));
  endfor;
  draw courbe1(0,16,2,150);
  draw labelise1(btex $T_A$ etex,0.9);
  draw courbe2(0,9,2,19*x);
  draw labelise2(btex $T_C$ etex,0.95);
endfig;
end