verbatimtex
%&latex
\documentclass{article}
\usepackage{mathrsfs}
\begin{document}
etex

input constantes;
input geometriepoint1;
input papiers;
beginfig(1);
  papiercinq((0,0),(8,6.5),orange);
  affixe.A(u*(1,2))so;
  affixe.C(u*(3,1))s;
  affixe.B(u*(1,4))no;
  draw z.B--z.A--z.C;
  affixec.D(u*(3.5,5.5))ne;
  affixec.E(u*(5.5,3.5))ne;
endfig;
beginfig(2);
  papiercinq((0,0),(9.5,6.5),orange);
  affixe.O(u*(4.5,2))so;
  affixec.I(u*(5,2))s;
  affixec.J(u*(4.5,2.5))o;
  draw (u*(0,2))--(u*(9.5,2));
  draw (u*(4.5,0))--(u*(4.5,6.5));
endfig;
beginfig(3);
  papiercinq((0,0),(9.5,6.5),orange);
  affixe.A(u*(4.5,4.5))s;
  affixe.B(u*(3.5,4))se;
  affixe.C(u*(3.5,2.5))ne;
  affixe.D(u*(5,2.5))no;
  affixe.E(u*(5.5,3))e;
  affixe.F(u*(5.5,4))e;
  draw z.A--z.B--z.C--z.D--z.E--z.F--cycle;
  label(btex $\cal P$ etex,1/2[z.C,z.F]);
endfig;
beginfig(4);
  affixe.C(u*(1,1))so;
  affixe.A(u*(4,1))s;
  affixe.B(u*(6,3))e;
  affixe.U(u*(1,3.5))no;
  affixe.S(z.A shifted (z.U-z.C))n;
  affixe.T(z.B shifted(z.U-z.C))ne;
  draw z.C--z.A--z.B--z.T--z.U--cycle;
  draw z.U--z.S--z.T;
  draw z.C--z.S--z.B;
  draw z.S--z.A;
  draw codeperp(S,A,C,5);
  draw codeperp(S,A,B,5);
  draw z.C--z.B dashed evenly;
endfig;
beginfig(5);
  affixe.B(u*(1,1))so;
  affixe.C(u*(6,1))se;
  affixe.S(u*(4,5))n;
  affixe.M(3/5[z.S,z.B])o;
  affixe.N(3/5[z.S,z.C])o;
  draw triangle(B,S,C);
  draw z.M--z.N;
endfig;
end