input courbescp13;
beginfig(1);
  depart((0,0),(13,11),(1,1),1,0.01);
  draw grille(0.5) withcolor gris;
  draw axes;
  graduationx(btex 1 etex,1);
  graduationy(btex 100 etex,100);
  legendex(btex heures $x$ etex);
  legendey(btex Distance km etex);
  draw courbe1(0,10,2,60*x);
  draw courbe2(0,10,2,900-90*x);
endfig;
end