input macrostat2;
input TEX;
beginfig(1);
  cadre((0,0),(8.5,6));
  draw grille(0.5) withcolor gris;
  draw axes;
  legendex(btex Note etex);
  legendey(btex Effectif etex);
  x.u:=1cm;
  y.u:=0.5cm;
  intervallex:=1;
  draw histo((0,0),(-1,1),(0,2),(1,4),(2,3),(3,7),(4,8),(5,8));
  for k=0 upto 5:
    label.bot(TEX(""&decimal(k)&"/5"),placepoint(k+0.5,0));
  endfor;
  for k=1 upto 4:
    dotlabel.lft(TEX(""&decimal(2*k)&""),placepoint(0,2*k));
  endfor;
endfig;
end