input constantes;
input geometriepoint1;
beginfig(1);
  affixe.O(u*(1,1))se;
  path cc, cd,ce;
  affixe.K((0,0));
  cc=cercle(K,1.5cm);
  cd=cc yscaled 0.25;
  ce=cd shifted z.O;
  affixe.S(u*(1,3))n;
  affixe.A(point((length ce)/2) of ce)o;
  affixe.B(point(0) of ce)e;
  draw subpath(0,(length ce)/2) of ce dashed evenly;
  draw subpath((length ce)/2,length ce) of ce;
  draw codeperp(A,O,S,5);
  draw z.A--z.S--(point(0) of ce);
  draw z.A--z.O--z.S dashed evenly;
endfig;
end