input constantes;
input geometriepoint1;
beginfig(1);
  affixe.K(u*(1,1))so;
  affixe.O(u*(7,1))se;
  affixe.E(u*(7,9))ne;
  affixe.A(z.E shifted(z.K-z.O))no;
  affixe.L(1/4[z.K,z.O])s;
  affixe.M(2/4[z.K,z.O])s;
  affixe.N(3/4[z.K,z.O])s;
  affixe.B(1/4[z.A,z.E])n;
  affixe.C(2/4[z.A,z.E])n;
  affixe.D(3/4[z.A,z.E])n;
  affixe.F(1/2[z.A,z.K])o;
  affixe.J(1/2[z.E,z.O])e;
  affixe.G(1/4[z.F,z.J])se;
  affixe.H(2/4[z.F,z.J])se;
  affixe.I(3/4[z.F,z.J])se;
  draw z.K--z.O--z.E--z.A--cycle;
  draw z.A--z.M--z.E;
  draw z.K--z.C--z.O;
  draw z.F--z.J;
  draw z.B--z.L;
  draw z.C--z.M;
  draw z.D--z.N;
endfig;
beginfig(2);
  affixe.A(u*(1,1));
  affixe.B(u*(4,1));
  affixe.C(u*(4,4));
  affixe.D(u*(1,4));
  affixe.H(1/2[z.B,z.C]);
  affixe.I(z.H shifted(u*(3.5,0)));
  draw z.A--z.B--z.C--z.D--cycle;
  draw z.B--z.I--z.C;
  label.top(btex 3~cm etex,1/2[z.D,z.C]);
  draw z.I--z.H dashed evenly;
  draw codeperp(I,H,B,5);
  label.top(btex 3,5~cm etex,1/2[z.H,z.I]);
endfig;
beginfig(3);
  affixe.A(u*(1,1))so;
  affixe.B(u*(5,1))se;
  affixe.C(u*(1,4))no;
  affixe.D(u*(2,2.5))s;
  affixe.E(z.B shifted(z.D-z.A));
  affixe.F(z.C shifted(z.D-z.A));
  draw triangle(A,B,C);
  draw z.B--z.E--z.F--z.C;
  draw z.A--z.D--z.F dashed evenly;
  draw z.D--z.E dashed evenly;
  draw codeperp(C,A,B,5);
  draw codeperp(F,D,E,5);
endfig;
u:=5mm;
beginfig(4);
  affixe.A(u*(1,1))so;
  affixe.B(u*(5,1))se;
  affixe.M(u*(1,4))no;
  affixe.D(u*(2,2.5))s;
  affixe.E(z.B shifted(z.D-z.A));
  affixe.N(z.M shifted(z.D-z.A));
  affixe.G(u*(1,9))no;
  affixe.H(z.B shifted(z.G-z.A))se;
  affixe.K(z.E shifted(z.G-z.A))ne;
  affixe.L(z.D shifted(z.G-z.A))n;
  draw z.A--z.B--z.E--z.K--z.L--z.G--cycle;
  draw z.G--z.H--z.K;
  draw z.H--z.B--z.M;
  draw z.A--z.D--z.L dashed evenly;
  draw z.M--z.N--z.E--z.D dashed evenly;
endfig;
end
  

  
  

  